ignored line
ignored line
ignored line
ignored line
ignored line
ignored line
ignored line
1 1
0 1.51 0
1 2
0 1.51 2.6680000000000001
1 3
0 4.224 0.5
1 4
2.39 5.65 2.6680000000000001
1 5
2.39 5.65 0
1 6
2.39 8.275 0.5
1 7
4.78 4.224 0.5
1 8
4.78 1.51 2.6680000000000001
1 9
4.78 1.51 0
1 10
2.39 0 0.5
1 11
0 1.51 4.6429999999999998
1 12
0 4.224 6.7830000000000004
1 13
2.39 5.65 4.6429999999999998
1 14
2.39 8.275 6.7830000000000004
1 15
4.78 4.224 6.7830000000000004
1 16
4.78 1.51 4.6429999999999998
1 17
2.39 0 6.7830000000000004
1 18
0 1.51 8.212
1 19
2.39 5.65 8.212
1 20
4.78 1.51 8.212
2 1
1 2
2 2
2 3
2 3
3 4
2 4
4 5
2 5
4 6
2 6
4 7
2 7
7 8
2 8
8 9
2 9
8 10
2 10
2 10
2 11
3 12
2 12
6 14
2 13
7 15
2 14
10 17
2 15
11 12
2 16
12 13
2 17
13 14
2 18
13 15
2 19
15 16
2 20
16 17
2 21
11 17
2 22
11 18
2 23
13 19
2 24
16 20
ignored line
ignored line
ignored line
ignored line
ignored line
ignored line
ignored line
