MESH    dimension 3 ElemType Hexahedra  Nnode 8
Coordinates
    1        -6.26239         4.15401               2
    2        -6.26239         4.15401               1
    3        -6.26239         4.15401               0
    4        -6.26239       -0.602395               2
    5        -6.26239       -0.602395               1
    6        -6.26239       -0.602395               0
    7        -1.09184         4.15401               2
    8        -1.09184         4.15401               1
    9        -1.09184         4.15401               0
   10        -1.09184       -0.602395               2
   11        -1.09184       -0.602395               1
   12        -1.09184       -0.602395               0
   13        -6.26239         -5.3588               2
   14        -6.26239         -5.3588               1
   15        -6.26239         -5.3588               0
   16         4.07871         4.15401               2
   17         4.07871         4.15401               1
   18         4.07871         4.15401               0
   19        -1.09184         -5.3588               2
   20        -1.09184         -5.3588               1
   21        -1.09184         -5.3588               0
   22         4.07871       -0.602395               2
   23         4.07871       -0.602395               1
   24         4.07871       -0.602395               0
   25         4.07871         -5.3588               2
   26         4.07871         -5.3588               1
   27         4.07871         -5.3588               0
end coordinates

Elements
       1      11       5       6      12      20      14      15      21
       2      23      11      12      24      26      20      21      27
       3      10       4       5      11      19      13      14      20
       4      22      10      11      23      25      19      20      26
       5       8       2       3       9      11       5       6      12
       6      17       8       9      18      23      11      12      24
       7       7       1       2       8      10       4       5      11
       8      16       7       8      17      22      10      11      23
end elements
